<svg width="57" height="202" viewBox="0 0 57 202" fill="none" xmlns="http://www.w3.org/2000/svg">
<line x1="28.25" y1="169" x2="28.25" y2="41" stroke="url(#paint0_linear)" stroke-width="1.5"/>
<g filter="url(#filter0_d)">
<path d="M28.5 49C42.031 49 53 38.031 53 24.5C53 10.969 42.031 0 28.5 0C14.969 0 4 10.969 4 24.5C4 38.031 14.969 49 28.5 49Z" fill="#F9F3F3"/>
<path d="M29.1444 27.4612C34.1443 27.4612 41.2331 18.5101 41.2331 12.8599C41.2331 10.3152 39.5451 8.79487 36.7162 8.79487C33.6412 8.79487 31.6107 10.6236 29.1444 10.6236C26.6568 10.6236 24.6206 8.79487 21.5726 8.79487C18.7438 8.79487 17.0558 10.3152 17.0558 12.8599C17.0558 18.5101 24.1446 27.4612 29.1444 27.4612ZM38.4175 28.3807C39.0723 30.9072 41.0896 32.5435 42.923 32.036C44.7565 31.5285 45.7116 29.069 45.0568 26.5425C44.402 24.016 42.3847 22.3798 40.5513 22.8873C38.7178 23.3947 37.7627 25.8542 38.4175 28.3807ZM33.0833 29.8959C31.1353 30.4894 30.1607 33.5373 30.9061 36.7033C31.6516 39.8693 33.8351 41.9539 35.7832 41.3604C37.7312 40.7669 38.7058 37.719 37.9604 34.553C37.2149 31.387 35.0308 29.3016 33.0833 29.8959ZM15.3665 32.0352C17.1999 32.5427 19.2166 30.9065 19.872 28.38C20.5268 25.8535 19.5717 23.394 17.7383 22.8865C15.9048 22.379 13.8881 24.0153 13.2327 26.5418C12.5779 29.0683 13.533 31.5277 15.3665 32.0352ZM25.2055 29.8959C23.2575 29.3024 21.074 31.387 20.3285 34.553C19.583 37.719 20.5577 40.7661 22.5057 41.3604C24.4538 41.9547 26.6373 39.8693 27.3828 36.7033C28.1282 33.5373 27.1536 30.4894 25.2055 29.8959Z" fill="#E6873C"/>
</g>
<path d="M28.5 202C42.031 202 53 191.031 53 177.5C53 163.969 42.031 153 28.5 153C14.969 153 4 163.969 4 177.5C4 191.031 14.969 202 28.5 202Z" fill="#E6873C"/>
<path d="M29.1444 180.461C34.1443 180.461 41.2331 171.51 41.2331 165.86C41.2331 163.315 39.5451 161.795 36.7163 161.795C33.6412 161.795 31.6107 163.624 29.1444 163.624C26.6568 163.624 24.6206 161.795 21.5726 161.795C18.7438 161.795 17.0558 163.315 17.0558 165.86C17.0558 171.51 24.1446 180.461 29.1444 180.461ZM38.4175 181.381C39.0723 183.907 41.0896 185.543 42.923 185.036C44.7565 184.528 45.7116 182.069 45.0568 179.543C44.402 177.016 42.3847 175.38 40.5513 175.887C38.7178 176.395 37.7627 178.854 38.4175 181.381ZM33.0833 182.896C31.1353 183.489 30.1607 186.537 30.9061 189.703C31.6516 192.869 33.8351 194.954 35.7832 194.36C37.7312 193.767 38.7058 190.719 37.9604 187.553C37.2149 184.387 35.0308 182.302 33.0833 182.896ZM15.3665 185.035C17.1999 185.543 19.2166 183.907 19.872 181.38C20.5269 178.853 19.5717 176.394 17.7383 175.887C15.9048 175.379 13.8881 177.015 13.2327 179.542C12.5779 182.068 13.533 184.528 15.3665 185.035ZM25.2056 182.896C23.2575 182.302 21.074 184.387 20.3285 187.553C19.5831 190.719 20.5577 193.766 22.5057 194.36C24.4538 194.955 26.6373 192.869 27.3828 189.703C28.1282 186.537 27.1536 183.489 25.2056 182.896Z" fill="#F9F3F3"/>
<defs>
<filter id="filter0_d" x="0" y="0" width="57" height="57" filterUnits="userSpaceOnUse" color-interpolation-filters="sRGB">
<feFlood flood-opacity="0" result="BackgroundImageFix"/>
<feColorMatrix in="SourceAlpha" type="matrix" values="0 0 0 0 0 0 0 0 0 0 0 0 0 0 0 0 0 0 127 0"/>
<feOffset dy="4"/>
<feGaussianBlur stdDeviation="2"/>
<feColorMatrix type="matrix" values="0 0 0 0 0 0 0 0 0 0 0 0 0 0 0 0 0 0 0.25 0"/>
<feBlend mode="normal" in2="BackgroundImageFix" result="effect1_dropShadow"/>
<feBlend mode="normal" in="SourceGraphic" in2="effect1_dropShadow" result="shape"/>
</filter>
<linearGradient id="paint0_linear" x1="29" y1="105" x2="24.0442" y2="87.9618" gradientUnits="userSpaceOnUse">
<stop offset="0.366569" stop-color="#F58220"/>
<stop offset="1" stop-color="white"/>
</linearGradient>
</defs>
</svg>
