<svg width="37" height="40" viewBox="0 0 37 40" fill="none" xmlns="http://www.w3.org/2000/svg">
<path d="M36.7812 9.00002V10.375C36.7812 10.5574 36.717 10.7322 36.6028 10.8612C36.4885 10.9901 36.3335 11.0625 36.1719 11.0625H34.3438V12.0938C34.3438 12.6633 33.9345 13.125 33.4297 13.125H3.57031C3.06552 13.125 2.65625 12.6633 2.65625 12.0938V11.0625H0.828125C0.666509 11.0625 0.511512 10.9901 0.397232 10.8612C0.282952 10.7322 0.21875 10.5574 0.21875 10.375V9.00002C0.218751 8.86401 0.254511 8.73105 0.321506 8.61798C0.388501 8.5049 0.48372 8.41678 0.595115 8.36477L18.267 0.802273C18.4162 0.732576 18.5838 0.732576 18.733 0.802273L36.4049 8.36477C36.5163 8.41678 36.6115 8.5049 36.6785 8.61798C36.7455 8.73105 36.7812 8.86401 36.7812 9.00002ZM34.9531 35.125H2.04688C1.03722 35.125 0.21875 36.0484 0.21875 37.1875V38.5625C0.21875 38.7449 0.282952 38.9197 0.397232 39.0487C0.511512 39.1776 0.666509 39.25 0.828125 39.25H36.1719C36.3335 39.25 36.4885 39.1776 36.6028 39.0487C36.717 38.9197 36.7812 38.7449 36.7812 38.5625V37.1875C36.7812 36.0484 35.9628 35.125 34.9531 35.125ZM6.3125 14.5V31H3.57031C3.06552 31 2.65625 31.4618 2.65625 32.0313V33.75H34.3438V32.0313C34.3438 31.4618 33.9345 31 33.4297 31H30.6875V14.5H25.8125V31H20.9375V14.5H16.0625V31H11.1875V14.5H6.3125Z" fill="#5E5A5A"/>
</svg>
